[
    {	"senderName":"vigucool",
      "chatMessage": "Ilove Html",
      "dateTime":"2018/06/10 12:00"
     
      },

  {
    "senderName":"Suba",
    "chatMessage": "What is the main difference JS and jquery?",
    "dateTime":"2018/06/10 03:00"
     
      },
{"senderName":"Baba",
  "chatMessage": "I love Html",
  "dateTime":"2018/06/10 12:00"
     
      }
  ]
